<?xml version="1.0" encoding="UTF-8"?>
<CustomTab xmlns="http://soap.sforce.com/2006/04/metadata">
    <description>Created by Lightning App Builder</description>
    <flexiPage>Operations</flexiPage>
    <label>Operaciones</label>
    <motif>Custom21: Computer</motif>
</CustomTab>
